{
    "$schema": "../../node_modules/ng-packagr/ng-package.schema.json",
    "dest": "../../dist/onboarding-core",
    "lib": {
        "entryFile": "src/public-api.ts",
        "umdModuleIds": {
            "@boxx/core": "boxx-core",
            "@ngrx/effects": "ngrx-effects",
            "@ngrx/store": "ngrx-store"
        }
    }
}