{
    "$schema": "../../node_modules/ng-packagr/ng-package.schema.json",
    "dest": "../../dist/shared-components",
    "lib": {
        "entryFile": "src/public-api.ts",
        "umdModuleIds": {
            "@ionic/angular": "@ionic/angular",
            "@ngx-translate/core": "@ngx-translate/core"
        }
    }
}