{
  "$schema": "../../node_modules/ng-packagr/ng-package.schema.json",
  "dest": "../../dist/panel-core",
  "lib": {
    "entryFile": "src/public-api.ts",
    "umdModuleIds": {
        "@boxx/core": "boxx-core",
        "@ionic/angular": "ionic-angular",
        "@ngrx/effects": "ngrx-effects",
        "@ngrx/store": "ngrx-store",
        "@ionic-native/file/ngx": "ionic-native-file",
        "@ngx-translate/core": "ngx-translate-core",
        "@techiediaries/ngx-qrcode": "techiediaries-ngx-qrcode",
        "@boxx/messages-core": "boxx-messages-core",
        "@boxx/events-core": "boxx-events-core",
        "@boxx/contacts-core": "boxx-contacts-core"
    }
  }
}