{
  "$schema": "../../node_modules/ng-packagr/ng-package.schema.json",
  "dest": "../../dist/store-core",
  "lib": {
    "entryFile": "src/public-api.ts",
    "umdModuleIds": {
        "@ngrx/effects": "ngrx-effects",
        "@ngrx/store": "ngrx-store",
        "@boxx/core": "boxx-core"
    }
  }
}